{
	"code":"0000",
	"data":{
		"endRow":5,
		"firstPage":1,
		"hasNextPage":false,
		"hasPreviousPage":false,
		"isFirstPage":true,
		"isLastPage":true,
		"lastPage":1,
		"list":[
			{
				"accessConnectorSource":{
					"extendparams":{},
					"id":0,
					"interval":0,
					"isPeriod":"4",
					"schemaMappingList":[],
					"taskInfoId":"70664"
				},
				"accessSys":{
					"accessSysAttributes":[],
					"accessSysDeptInfo":{
						"deptName":"部门",
						"id":1,
						"level":0
					},
					"accessSysDeptInfoId":"1",
					"accessSysDialect":{
						"id":10001,
						"name":"mysql"
					},
					"accessSysDialectId":"10001",
					"accessSysObjInfos":[],
					"accessSysStatistics":[],
					"accessSysType":{
						"id":10003,
						"name":"数据源"
					},
					"accessSysTypeId":"10003",
					"accessSysWay":{
						"id":1001,
						"name":"pull"
					},
					"accessSysWayId":"1001",
					"contactsEmail":"",
					"contactsPhone":"",
					"createTime":"2019-01-25 10:47:48",
					"id":94553,
					"lastOperatingTime":"2019-01-18 14:15:35",
					"name":"zhouhy--数据核验",
					"registerName":"zhouhaiyan",
					"registerPhone":"18795463293",
					"status":"0",
					"verficationCode":"0"
				},
				"accessSysId":"94553",
				"accessSysObjDetails":[],
				"collectName":"全量接入",
				"comments":"",
				"createImpalaTable":false,
				"diyComments":"",
				"diyCommentsFrom":"0",
				"exitDataSurvey":false,
				"exitTask":true,
				"extendParams":{
					"isRefresh":"0",
					"taskType":"TABLE",
					"taskInfoDetailsId":"71135",
					"taskInfoId":"70664",
					"separator":"\t",
					"taskStatus":"1",
					"objectType":"TABLE"
				},
				"id":10721005,
				"isDeleted":"2",
				"isHistory":"1",
				"lastChangeTime":"2019-01-15 08:40:37",
				"lastDmlTime":"",
				"name":"mysql_1000w",
				"objectStatus":"数据接入中",
				"owner":"dacm_test",
				"totalRows":"9729855"
			},
			{
				"accessConnectorSource":{
					"extendparams":{},
					"id":0,
					"interval":0,
					"isPeriod":"4",
					"schemaMappingList":[],
					"taskInfoId":"70665"
				},
				"accessSys":{"$ref":"$.data.list[0].accessSys"},
				"accessSysId":"94553",
				"accessSysObjDetails":[],
				"collectName":"全量接入",
				"comments":"",
				"createImpalaTable":false,
				"diyComments":"",
				"diyCommentsFrom":"0",
				"exitDataSurvey":false,
				"exitTask":true,
				"extendParams":{
					"isRefresh":"0",
					"taskType":"TABLE",
					"taskInfoDetailsId":"71136",
					"taskInfoId":"70665",
					"separator":"\t",
					"taskStatus":"1",
					"objectType":"TABLE"
				},
				"id":10721006,
				"isDeleted":"2",
				"isHistory":"1",
				"lastChangeTime":"2018-12-27 06:26:25",
				"lastDmlTime":"",
				"name":"mysql_100w",
				"objectStatus":"数据接入中",
				"owner":"dacm_test",
				"totalRows":"996005"
			},
			{
				"accessConnectorSource":{
					"extendparams":{},
					"id":0,
					"interval":0,
					"isPeriod":"4",
					"schemaMappingList":[],
					"taskInfoId":"70666"
				},
				"accessSys":{"$ref":"$.data.list[0].accessSys"},
				"accessSysId":"94553",
				"accessSysObjDetails":[],
				"collectName":"全量接入",
				"comments":"",
				"createImpalaTable":false,
				"diyComments":"",
				"diyCommentsFrom":"0",
				"exitDataSurvey":false,
				"exitTask":true,
				"extendParams":{
					"isRefresh":"0",
					"taskType":"TABLE",
					"taskInfoDetailsId":"71137",
					"taskInfoId":"70666",
					"separator":"\t",
					"taskStatus":"1",
					"objectType":"TABLE"
				},
				"id":10721007,
				"isDeleted":"2",
				"isHistory":"1",
				"lastChangeTime":"2019-01-15 09:03:24",
				"lastDmlTime":"",
				"name":"mysql_10w",
				"objectStatus":"数据接入中",
				"owner":"dacm_test",
				"totalRows":"99803"
			},
			{
				"accessConnectorSource":{
					"extendparams":{},
					"id":0,
					"interval":0,
					"isPeriod":"4",
					"schemaMappingList":[],
					"taskInfoId":"70667"
				},
				"accessSys":{"$ref":"$.data.list[0].accessSys"},
				"accessSysId":"94553",
				"accessSysObjDetails":[],
				"collectName":"全量接入",
				"comments":"",
				"createImpalaTable":false,
				"diyComments":"",
				"diyCommentsFrom":"0",
				"exitDataSurvey":false,
				"exitTask":true,
				"extendParams":{
					"isRefresh":"0",
					"taskType":"TABLE",
					"taskInfoDetailsId":"71138",
					"taskInfoId":"70667",
					"separator":"\t",
					"taskStatus":"1",
					"objectType":"TABLE"
				},
				"id":10721008,
				"isDeleted":"2",
				"isHistory":"1",
				"lastChangeTime":"2019-01-15 09:15:47",
				"lastDmlTime":"",
				"name":"mysql_160w",
				"objectStatus":"数据接入中",
				"owner":"dacm_test",
				"totalRows":"1611631"
			},
			{
				"accessConnectorSource":{
					"extendparams":{},
					"id":0,
					"interval":0,
					"isPeriod":"4",
					"schemaMappingList":[],
					"taskInfoId":"70668"
				},
				"accessSys":{"$ref":"$.data.list[0].accessSys"},
				"accessSysId":"94553",
				"accessSysObjDetails":[],
				"collectName":"全量接入",
				"comments":"",
				"createImpalaTable":false,
				"diyComments":"",
				"diyCommentsFrom":"0",
				"exitDataSurvey":false,
				"exitTask":true,
				"extendParams":{
					"isRefresh":"0",
					"taskType":"TABLE",
					"taskInfoDetailsId":"71139",
					"taskInfoId":"70668",
					"separator":"\t",
					"taskStatus":"1",
					"objectType":"TABLE"
				},
				"id":10721009,
				"isDeleted":"2",
				"isHistory":"1",
				"lastChangeTime":"2019-01-17 01:14:54",
				"lastDmlTime":"",
				"name":"mysql_500w",
				"objectStatus":"数据接入中",
				"owner":"dacm_test",
				"totalRows":"4863993"
			}
		],
		"navigateFirstPage":1,
		"navigateLastPage":1,
		"navigatePages":0,
		"navigatepageNums":[1],
		"nextPage":1,
		"pageNum":1,
		"pageSize":20,
		"pages":1,
		"prePage":1,
		"size":5,
		"startRow":1,
		"total":5
	},
	"message":"调用成功",
	"success":true
}
