{"result":"succeed","page":{"pageNum":1,"pageSize":20,"size":20,"startRow":1,"endRow":20,"total":596,"pages":30,"list":[{"id":92661,"name":"app_test_1016","accessSysType":{"id":10002,"name":"应用系统"},"accessSysWay":{"id":1001,"name":"pull"},"accessSysDialect":{"id":0,"name":null,"accSysWay":null,"accessSyses":[]},"contactsPhone":"","contactsEmail":"","comments":"","verfication_code":"","accessSysAttributes":[],"accessSysObjInfos":[],"accessSysStatistics":[],"extendParams":{},"accessSysDeptInfo":null,"status":null,"lastOperatingTime":null,"createTime":"2018-10-16 13:46:51"},{"id":92465,"name":"mysql_103_Copy_92465","accessSysType":{"id":10003,"name":"数据源"},"accessSysWay":{"id":1001,"name":"pull"},"accessSysDialect":{"id":10001,"name":"mysql","accSysWay":null,"accessSyses":[]},"contactsPhone":"","contactsEmail":"","comments":"","verfication_code":"","accessSysAttributes":[],"accessSysObjInfos":[],"accessSysStatistics":[],"extendParams":{},"accessSysDeptInfo":null,"status":null,"lastOperatingTime":null,"createTime":"2018-10-12 10:25:59"},{"id":92464,"name":"mysql_103_Copy_92464","accessSysType":{"id":10003,"name":"数据源"},"accessSysWay":{"id":1001,"name":"pull"},"accessSysDialect":{"id":10001,"name":"mysql","accSysWay":null,"accessSyses":[]},"contactsPhone":"","contactsEmail":"","comments":"","verfication_code":"","accessSysAttributes":[],"accessSysObjInfos":[],"accessSysStatistics":[],"extendParams":{},"accessSysDeptInfo":null,"status":null,"lastOperatingTime":null,"createTime":"2018-10-11 14:06:50"},{"id":92463,"name":"mysql_103","accessSysType":{"id":10003,"name":"数据源"},"accessSysWay":{"id":1001,"name":"pull"},"accessSysDialect":{"id":10001,"name":"mysql","accSysWay":null,"accessSyses":[]},"contactsPhone":"","contactsEmail":"","comments":"","verfication_code":"","accessSysAttributes":[],"accessSysObjInfos":[],"accessSysStatistics":[],"extendParams":{},"accessSysDeptInfo":null,"status":null,"lastOperatingTime":null,"createTime":"2018-10-11 13:27:50"},{"id":92462,"name":"116mysql111","accessSysType":{"id":10003,"name":"数据源"},"accessSysWay":{"id":1001,"name":"pull"},"accessSysDialect":{"id":10001,"name":"mysql","accSysWay":null,"accessSyses":[]},"contactsPhone":"","contactsEmail":"","comments":"","verfication_code":"","accessSysAttributes":[],"accessSysObjInfos":[],"accessSysStatistics":[],"extendParams":{},"accessSysDeptInfo":null,"status":null,"lastOperatingTime":null,"createTime":"2018-10-10 10:52:43"},{"id":92461,"name":"123213","accessSysType":{"id":10002,"name":"应用系统"},"accessSysWay":{"id":1001,"name":"pull"},"accessSysDialect":{"id":0,"name":null,"accSysWay":null,"accessSyses":[]},"contactsPhone":"","contactsEmail":"","comments":"","verfication_code":"","accessSysAttributes":[],"accessSysObjInfos":[],"accessSysStatistics":[],"extendParams":{},"accessSysDeptInfo":null,"status":null,"lastOperatingTime":null,"createTime":"2018-10-09 17:37:33"},{"id":92243,"name":"rrm0926_12_Copy_92243","accessSysType":{"id":10003,"name":"数据源"},"accessSysWay":{"id":1001,"name":"pull"},"accessSysDialect":{"id":10001,"name":"mysql","accSysWay":null,"accessSyses":[]},"contactsPhone":"","contactsEmail":"","comments":"","verfication_code":"","accessSysAttributes":[],"accessSysObjInfos":[],"accessSysStatistics":[],"extendParams":{},"accessSysDeptInfo":null,"status":null,"lastOperatingTime":null,"createTime":"2018-09-29 17:21:13"},{"id":92242,"name":"postsql0927_Copy_92242","accessSysType":{"id":10003,"name":"数据源"},"accessSysWay":{"id":1001,"name":"pull"},"accessSysDialect":{"id":10004,"name":"postgresql","accSysWay":null,"accessSyses":[]},"contactsPhone":"","contactsEmail":"","comments":"","verfication_code":"","accessSysAttributes":[],"accessSysObjInfos":[],"accessSysStatistics":[],"extendParams":{},"accessSysDeptInfo":null,"status":null,"lastOperatingTime":null,"createTime":"2018-09-29 17:15:26"},{"id":92241,"name":"数据核验——oracle_Copy_92241","accessSysType":{"id":10003,"name":"数据源"},"accessSysWay":{"id":1001,"name":"pull"},"accessSysDialect":{"id":10002,"name":"oracle","accSysWay":null,"accessSyses":[]},"contactsPhone":"","contactsEmail":"","comments":"","verfication_code":"","accessSysAttributes":[],"accessSysObjInfos":[],"accessSysStatistics":[],"extendParams":{},"accessSysDeptInfo":null,"status":null,"lastOperatingTime":null,"createTime":"2018-09-29 16:07:52"},{"id":92221,"name":"数据核验——oracle_Copy_92221","accessSysType":{"id":10003,"name":"数据源"},"accessSysWay":{"id":1001,"name":"pull"},"accessSysDialect":{"id":10002,"name":"oracle","accSysWay":null,"accessSyses":[]},"contactsPhone":"","contactsEmail":"","comments":"","verfication_code":"","accessSysAttributes":[],"accessSysObjInfos":[],"accessSysStatistics":[],"extendParams":{},"accessSysDeptInfo":null,"status":null,"lastOperatingTime":null,"createTime":"2018-09-29 15:50:43"},{"id":91301,"name":"10.37.149.191-1000","accessSysType":{"id":10003,"name":"数据源"},"accessSysWay":{"id":1001,"name":"pull"},"accessSysDialect":{"id":10001,"name":"mysql","accSysWay":null,"accessSyses":[]},"contactsPhone":"","contactsEmail":"","comments":"","verfication_code":"","accessSysAttributes":[],"accessSysObjInfos":[],"accessSysStatistics":[],"extendParams":{},"accessSysDeptInfo":null,"status":null,"lastOperatingTime":null,"createTime":"2018-09-29 11:11:20"},{"id":90942,"name":"oracle0927_Copy_90942","accessSysType":{"id":10003,"name":"数据源"},"accessSysWay":{"id":1001,"name":"pull"},"accessSysDialect":{"id":10002,"name":"oracle","accSysWay":null,"accessSyses":[]},"contactsPhone":"","contactsEmail":"","comments":"","verfication_code":"","accessSysAttributes":[],"accessSysObjInfos":[],"accessSysStatistics":[],"extendParams":{},"accessSysDeptInfo":null,"status":null,"lastOperatingTime":null,"createTime":"2018-09-28 16:31:52"},{"id":90941,"name":"数据核验——oracle_Copy_90941","accessSysType":{"id":10003,"name":"数据源"},"accessSysWay":{"id":1001,"name":"pull"},"accessSysDialect":{"id":10002,"name":"oracle","accSysWay":null,"accessSyses":[]},"contactsPhone":"","contactsEmail":"","comments":"","verfication_code":"","accessSysAttributes":[],"accessSysObjInfos":[],"accessSysStatistics":[],"extendParams":{},"accessSysDeptInfo":null,"status":null,"lastOperatingTime":null,"createTime":"2018-09-28 15:31:46"},{"id":90744,"name":"postsql0927_Copy_90744","accessSysType":{"id":10003,"name":"数据源"},"accessSysWay":{"id":1001,"name":"pull"},"accessSysDialect":{"id":10004,"name":"postgresql","accSysWay":null,"accessSyses":[]},"contactsPhone":"","contactsEmail":"","comments":"","verfication_code":"","accessSysAttributes":[],"accessSysObjInfos":[],"accessSysStatistics":[],"extendParams":{},"accessSysDeptInfo":null,"status":null,"lastOperatingTime":null,"createTime":"2018-09-28 14:17:33"},{"id":90743,"name":"oracle0927_Copy_90743","accessSysType":{"id":10003,"name":"数据源"},"accessSysWay":{"id":1001,"name":"pull"},"accessSysDialect":{"id":10002,"name":"oracle","accSysWay":null,"accessSyses":[]},"contactsPhone":"","contactsEmail":"","comments":"","verfication_code":"","accessSysAttributes":[],"accessSysObjInfos":[],"accessSysStatistics":[],"extendParams":{},"accessSysDeptInfo":null,"status":null,"lastOperatingTime":null,"createTime":"2018-09-28 13:41:14"},{"id":90742,"name":"rrm0927_Copy_90742","accessSysType":{"id":10003,"name":"数据源"},"accessSysWay":{"id":1001,"name":"pull"},"accessSysDialect":{"id":10001,"name":"mysql","accSysWay":null,"accessSyses":[]},"contactsPhone":"","contactsEmail":"","comments":"","verfication_code":"","accessSysAttributes":[],"accessSysObjInfos":[],"accessSysStatistics":[],"extendParams":{},"accessSysDeptInfo":null,"status":null,"lastOperatingTime":null,"createTime":"2018-09-28 11:54:50"},{"id":90741,"name":"数据核验——oracle_Copy_90741","accessSysType":{"id":10003,"name":"数据源"},"accessSysWay":{"id":1001,"name":"pull"},"accessSysDialect":{"id":10002,"name":"oracle","accSysWay":null,"accessSyses":[]},"contactsPhone":"","contactsEmail":"","comments":"","verfication_code":"","accessSysAttributes":[],"accessSysObjInfos":[],"accessSysStatistics":[],"extendParams":{},"accessSysDeptInfo":null,"status":null,"lastOperatingTime":null,"createTime":"2018-09-28 11:33:37"},{"id":90485,"name":"rrm0927_Copy_90485","accessSysType":{"id":10003,"name":"数据源"},"accessSysWay":{"id":1001,"name":"pull"},"accessSysDialect":{"id":10001,"name":"mysql","accSysWay":null,"accessSyses":[]},"contactsPhone":"","contactsEmail":"","comments":"","verfication_code":"","accessSysAttributes":[],"accessSysObjInfos":[],"accessSysStatistics":[],"extendParams":{},"accessSysDeptInfo":null,"status":null,"lastOperatingTime":null,"createTime":"2018-09-28 10:46:23"},{"id":90484,"name":"rrm0927_Copy_90484","accessSysType":{"id":10003,"name":"数据源"},"accessSysWay":{"id":1001,"name":"pull"},"accessSysDialect":{"id":10001,"name":"mysql","accSysWay":null,"accessSyses":[]},"contactsPhone":"","contactsEmail":"","comments":"","verfication_code":"","accessSysAttributes":[],"accessSysObjInfos":[],"accessSysStatistics":[],"extendParams":{},"accessSysDeptInfo":null,"status":null,"lastOperatingTime":null,"createTime":"2018-09-28 10:32:35"},{"id":90483,"name":"数据核验——oracle_Copy_90483","accessSysType":{"id":10003,"name":"数据源"},"accessSysWay":{"id":1001,"name":"pull"},"accessSysDialect":{"id":10002,"name":"oracle","accSysWay":null,"accessSyses":[]},"contactsPhone":"","contactsEmail":"","comments":"","verfication_code":"","accessSysAttributes":[],"accessSysObjInfos":[],"accessSysStatistics":[],"extendParams":{},"accessSysDeptInfo":null,"status":null,"lastOperatingTime":null,"createTime":"2018-09-28 09:59:45"}],"firstPage":1,"prePage":1,"nextPage":2,"lastPage":30,"isFirstPage":true,"isLastPage":false,"hasPreviousPage":false,"hasNextPage":true,"navigatePages":0,"navigatepageNums":[1,2,3,4,5,6,7,8,9,10,11,12,13,14,15,16,17,18,19,20,21,22,23,24,25,26,27,28,29,30]},"message":""}
